     _                  _                  _       _                  _               _                                         _               
    / \     _ __     __| |  _ __    ___   (_)   __| |           ___  | |__     __ _  | |_           ___    ___   _ __  __   __ (_)   ___    ___ 
   / _ \   | '_ \   / _` | | '__|  / _ \  | |  / _` |  _____   / __| | '_ \   / _` | | __|  _____  / __|  / _ \ | '__| \ \ / / | |  / __|  / _ \
  / ___ \  | | | | | (_| | | |    | (_) | | | | (_| | |_____| | (__  | | | | | (_| | | |_  |_____| \__ \ |  __/ | |     \ V /  | | | (__  |  __/
 /_/   \_\ |_| |_|  \__,_| |_|     \___/  |_|  \__,_|          \___| |_| |_|  \__,_|  \__|         |___/  \___| |_|      \_/   |_|  \___|  \___|
                                                                                                                                                